{
    "header": {
        "from_location": "BDG",
        "to_location": "GLC"
    },
    "Services": [
        {
            "serviceAttributesMetrics": {
                "origin_location": "MTH",
                "destination_location": "DMR",
                "gbtt_ptd": "0618",
                "gbtt_pta": "0622",
                "toc_code": "SR",
                "matched_services": "3",
                "rids": [
                    "202108028789815",
                    "202108038789815",
                    "202108048789815"
                ]
            },
            "Metrics": [
                {
                    "tolerance_value": "0",
                    "num_not_tolerance": "1",
                    "num_tolerance": "2",
                    "percent_tolerance": "67",
                    "global_tolerance": true
                },
                {
                    "tolerance_value": "5",
                    "num_not_tolerance": "1",
                    "num_tolerance": "2",
                    "percent_tolerance": "67",
                    "global_tolerance": false
                },
                {
                    "tolerance_value": "15",
                    "num_not_tolerance": "0",
                    "num_tolerance": "3",
                    "percent_tolerance": "100",
                    "global_tolerance": false
                },
                {
                    "tolerance_value": "30",
                    "num_not_tolerance": "0",
                    "num_tolerance": "3",
                    "percent_tolerance": "100",
                    "global_tolerance": false
                }
            ]
        },
        {
            "serviceAttributesMetrics": {
                "origin_location": "MTH",
                "destination_location": "DMR",
                "gbtt_ptd": "0627",
                "gbtt_pta": "0632",
                "toc_code": "SR",
                "matched_services": "3",
                "rids": [
                    "202108028789923",
                    "202108038789923",
                    "202108048789923"
                ]
            },
            "Metrics": [
                {
                    "tolerance_value": "0",
                    "num_not_tolerance": "1",
                    "num_tolerance": "2",
                    "percent_tolerance": "67",
                    "global_tolerance": true
                },
                {
                    "tolerance_value": "5",
                    "num_not_tolerance": "0",
                    "num_tolerance": "3",
                    "percent_tolerance": "100",
                    "global_tolerance": false
                },
                {
                    "tolerance_value": "15",
                    "num_not_tolerance": "0",
                    "num_tolerance": "3",
                    "percent_tolerance": "100",
                    "global_tolerance": false
                },
                {
                    "tolerance_value": "30",
                    "num_not_tolerance": "0",
                    "num_tolerance": "3",
                    "percent_tolerance": "100",
                    "global_tolerance": false
                }
            ]
        }
    ]
}